4 꿀벌 군집 손실:푸아송 디스크 샘플링으로 수량 시각화 – The Art of Data Visualization with ggplot2
…
Figure 4.7 에서 푸아송 디스크 샘플링의 점 위치가 실제로는 완전히 무작위가 아니며 모양이 훨씬 더 좋다는 것을 알 수 있습니다.

bees_grid 데이터로 돌아가서 tidyr의 unnest()를 사용하여 pts 리스트 열을 별도의 행과 열로 확장하고 state 열이 앞서 정의한 state_levels 변수에 의해 정렬된 팩터인지 확인합니다. 

bees_plot_data <- bees_grid |>
  unnest(pts) |>
  mutate(
    state = factor(state, levels = state_levels)
  )

이것은 다음과 같은 형태의 데이터 세트를 생성합니다:

bees_plot_data

# A tibble: 7,483 × 5
    year state      colony_n     x     y
   <dbl> <fct>         <dbl> <dbl> <dbl>
 1  2015 California   750000  5.05  5.15
 2  2015 California   750000  5.44  4.80
 3  2015 California   750000  4.55  5.06
 4  2015 California   750000  5.17  4.66
 5  2015 California   750000  5.53  4.37
 6  2015 California   750000  5.06  4.25
 7  2015 California   750000  4.84  4.86
 8  2015 California   750000  5.66  5.07
 9  2015 California   750000  4.85  4.54
10  2015 California   750000  5.37  5.29
# ℹ 7,473 more rows
…
